[gd_scene load_steps=5 format=2]

[ext_resource path="res://Game.tscn" type="PackedScene" id=1]
[ext_resource path="res://GUI.tscn" type="PackedScene" id=2]
[ext_resource path="res://script/Main.gd" type="Script" id=3]
[ext_resource path="res://Levels.tscn" type="PackedScene" id=4]

[node name="Main" type="Node"]
script = ExtResource( 3 )

[node name="Game" parent="." instance=ExtResource( 1 )]

[node name="Levels" parent="." instance=ExtResource( 4 )]

[node name="GUI" parent="." instance=ExtResource( 2 )]

[node name="Tween" type="Tween" parent="."]
